%YAML 1.1
%TAG !u! tag:unity3d.com,2011:
--- !u!78 &1
TagManager:
  serializedVersion: 2
  tags:
  - Metaball_liquid
  - DestrictionTag
  - EndFunnel
  - DynamicObstacles
  - Bomb
  layers:
  - Default
  - TransparentFX
  - Ignore Raycast
  - 
  - Water
  - UI
  - 
  - 
  - Bg
  - Water2D
  - MapLayer
  - 
  - 
  - 
  - 
  - 
  - 
  - 
  - 
  - 
  - 
  - 
  - 
  - 
  - 
  - 
  - 
  - 
  - 
  - 
  - 
  - 
  m_SortingLayers:
  - name: Default
    uniqueID: 0
    locked: 0
  - name: Car
    uniqueID: 4018321453
    locked: 0
  - name: Down
    uniqueID: 4105453565
    locked: 0
  - name: Middle
    uniqueID: 324118645
    locked: 0
  - name: Top
    uniqueID: 3520017815
    locked: 0
